2022-04-02-20-17-10-561786
2022-04-02-21-04-19-543606
2022-04-02-21-19-20-090889
2022-04-02-21-34-20-705250
2022-04-02-21-49-21-339493
2022-04-02-22-04-21-978775
2022-04-02-22-19-22-622393
2022-04-02-22-34-23-251513
2022-04-02-22-49-23-836037
2022-04-02-23-04-24-470871
2022-04-02-23-19-25-114406
2022-04-02-23-34-25-748447
2022-04-02-23-49-26-335319
2022-04-03-00-04-26-911365
2022-04-03-00-19-27-494441
2022-04-03-00-34-28-132496
2022-04-03-00-49-28-766480
2022-04-03-01-04-29-406941
2022-04-03-01-19-30-009118
2022-04-03-01-34-30-629740
2022-04-03-01-49-31-210278
2022-04-03-02-04-31-787606
2022-04-03-02-19-32-423701
2022-04-03-02-34-33-065588
2022-04-03-02-49-33-704472
2022-04-03-03-04-34-349155
2022-04-03-03-19-34-985307
2022-04-03-03-34-35-566603
2022-04-03-03-49-36-146002
2022-04-03-04-04-36-781313
2022-04-03-04-19-37-363061
2022-04-03-04-34-37-943040
2022-04-03-04-49-38-588695
2022-04-03-05-04-39-223900
2022-04-03-05-19-39-860790
2022-04-03-05-34-40-490820
2022-04-03-05-49-41-111937
2022-04-03-06-04-41-748554
2022-04-03-06-19-42-379028
2022-04-03-06-34-42-983096
2022-04-03-06-49-43-608451
2022-04-03-07-04-44-195732
2022-04-03-07-19-44-806637
2022-04-03-07-34-45-390169
2022-04-03-07-49-46-031476
2022-04-03-08-04-46-670457
2022-04-03-08-19-47-310005
2022-04-03-08-34-47-947107
2022-04-03-08-49-48-578810
2022-04-03-09-04-49-121767
2022-04-03-09-19-49-671627
2022-04-03-09-34-50-204728
2022-04-03-09-49-50-758695
2022-04-03-10-04-51-311236
2022-04-03-10-19-51-853679
2022-04-03-10-34-52-411735
2022-04-03-10-49-52-945852
2022-04-03-11-04-53-481029
2022-04-03-11-19-54-028224
2022-04-03-11-34-54-563475
2022-04-03-11-49-55-117774
2022-04-03-12-04-55-681665
2022-04-03-12-19-56-228867
2022-04-03-12-34-56-785594
2022-04-03-12-49-57-278646
2022-04-03-13-04-57-841754
2022-04-03-13-19-58-402747
2022-04-03-13-34-58-963509
2022-04-03-13-49-59-519624
2022-04-03-14-05-00-070941
2022-04-03-14-20-00-561269
2022-04-03-14-35-01-116003
2022-04-03-14-50-01-673704
2022-04-03-15-05-02-228445
2022-04-03-15-20-02-776977
2022-04-03-15-35-03-315324
2022-04-03-15-50-03-847982
2022-04-03-16-05-04-389419
2022-04-03-16-20-04-945278
2022-04-03-16-35-05-497651
2022-04-03-16-50-06-042785
2022-04-03-17-05-06-594178
2022-04-03-17-20-07-138570
2022-04-03-17-35-07-689693
2022-04-03-17-50-08-247343
2022-04-03-18-05-08-783232
2022-04-03-18-20-09-336796
2022-04-03-18-35-09-821850
2022-04-03-18-50-10-305042
2022-04-03-19-05-10-765477
2022-04-03-19-20-11-229261
2022-04-03-19-35-11-789345
2022-04-03-19-50-12-333704
2022-04-03-20-05-12-896267
2022-04-03-20-20-13-498797
2022-04-03-20-35-14-116536
2022-04-03-20-50-14-709591
2022-04-03-21-05-15-334996
2022-04-03-21-20-15-956849
2022-04-03-21-35-16-488035
2022-04-03-21-50-17-080109
2022-04-03-22-05-17-573464
2022-04-03-22-20-18-204243
2022-04-03-22-35-18-843049
2022-04-03-22-50-19-362745
2022-04-03-23-05-20-004181
2022-04-03-23-20-20-580078
2022-04-03-23-35-21-226775
2022-04-03-23-50-21-864864
2022-04-04-00-05-22-449914
2022-04-04-00-20-23-089011
2022-04-04-00-35-23-672607
2022-04-04-00-50-24-304356
2022-04-04-01-05-24-940712
2022-04-04-01-20-25-579627
2022-04-04-01-35-26-160512
2022-04-04-01-50-26-791545
2022-04-04-02-05-27-420286
2022-04-04-02-20-28-000198
2022-04-04-02-35-28-629079
2022-04-04-02-50-29-217098
2022-04-04-03-05-29-803406
2022-04-04-03-20-30-388796
2022-04-04-03-35-30-913653
2022-04-04-03-50-31-431477
2022-04-04-04-05-32-017760
2022-04-04-04-20-32-659960
2022-04-04-04-35-33-296388
2022-04-04-04-50-33-882412
2022-04-04-05-05-34-517471
2022-04-04-05-20-35-153509
2022-04-04-05-35-35-791988
2022-04-04-05-50-36-428729
2022-04-04-06-05-37-066978
2022-04-04-06-20-37-653068
2022-04-04-06-35-38-291567
2022-04-04-06-50-38-872366
2022-04-04-07-05-39-512609
2022-04-04-07-20-40-151441
2022-04-04-07-35-40-786325
2022-04-04-07-50-41-368301
2022-04-04-08-05-41-945085
2022-04-04-08-20-42-581092
2022-04-04-08-35-43-166787
2022-04-04-08-50-43-765858
2022-04-04-09-05-44-284679
2022-04-04-09-20-44-845448
2022-04-04-09-35-45-310392
2022-04-04-09-50-45-858833
2022-04-04-10-05-46-311118
2022-04-04-10-20-46-853017
2022-04-04-10-35-47-391306
2022-04-04-10-50-47-928479
2022-04-04-11-05-48-477086
2022-04-04-11-20-49-009713
2022-04-04-11-35-49-540357
2022-04-04-11-50-50-098184
2022-04-04-12-05-50-645347
2022-04-04-12-20-51-155909
2022-04-04-12-35-51-684331
2022-04-04-12-50-52-243980
2022-04-04-13-05-52-807204
2022-04-04-13-20-53-350105
2022-04-04-13-35-53-904847
2022-04-04-13-50-54-462728
2022-04-04-14-05-55-022521
2022-04-04-14-20-55-581036
2022-04-04-14-35-56-139361
2022-04-04-14-50-56-699511
2022-04-04-15-05-57-259093
2022-04-04-15-20-57-819140
2022-04-04-15-35-58-315873
2022-04-04-15-50-58-859915
2022-04-04-16-05-59-399010
2022-04-04-16-20-59-938841
2022-04-04-16-36-00-496196
2022-04-04-16-51-01-041662
2022-04-04-17-06-01-577957
2022-04-04-17-21-02-125223
2022-04-04-17-36-02-668499
2022-04-04-17-51-03-217011
2022-04-04-18-06-03-749107
2022-04-04-18-21-04-300219
2022-04-04-18-36-04-858830
2022-04-04-18-51-05-415034
2022-04-04-19-06-05-954541
2022-04-04-19-21-06-521294
2022-04-04-19-36-07-053517
2022-04-04-19-51-07-620195
2022-04-04-20-06-08-265630
2022-04-04-20-21-08-849719
2022-04-04-20-36-09-440285
2022-04-04-20-51-10-024221
2022-04-04-21-06-10-650728
2022-04-04-21-21-11-291070
2022-04-04-21-36-11-882647
2022-04-04-21-51-12-401616
2022-04-04-22-06-12-979578
2022-04-04-22-21-13-613326
2022-04-04-22-36-14-248639
2022-04-04-22-51-14-877784
2022-04-04-23-06-15-512882
2022-04-04-23-21-16-146705
2022-04-04-23-36-16-778708
2022-04-04-23-51-17-413651
2022-04-05-00-06-18-048682
2022-04-05-00-21-18-684222
2022-04-05-00-36-19-319399
2022-04-05-00-51-19-909556
2022-04-05-01-06-20-444528
2022-04-05-01-21-21-038415
2022-04-05-01-36-21-623036
2022-04-05-01-51-22-248222
2022-04-05-02-06-22-838579
2022-04-05-02-21-23-457344
2022-04-05-02-36-23-977508
2022-04-05-02-51-24-559243
2022-04-05-03-06-25-144968
2022-04-05-03-21-25-770015
2022-04-05-03-36-26-407783
2022-04-05-03-51-26-938283
2022-04-05-04-06-27-517836
2022-04-05-04-21-28-101373
2022-04-05-04-36-28-725347
2022-04-05-04-51-29-351728
2022-04-05-05-06-29-911197
2022-04-05-05-21-30-506117
2022-04-05-05-36-31-126628
2022-04-05-05-51-31-759053
2022-04-05-06-06-32-345996
2022-04-05-06-21-32-940877
2022-04-05-06-36-33-467494
2022-04-05-06-51-34-092474
2022-04-05-07-06-34-682429
2022-04-05-07-21-35-290379
2022-04-05-07-36-35-894492
2022-04-05-07-51-36-524418
2022-04-05-08-06-37-052470
2022-04-05-08-21-37-640255
2022-04-05-08-36-38-281544
2022-04-05-08-51-38-892585
2022-04-05-09-06-39-438529
2022-04-05-09-21-39-946618
2022-04-05-09-36-40-484848
2022-04-05-09-51-41-039834
2022-04-05-10-06-41-570612
2022-04-05-10-21-42-129790
2022-04-05-10-36-42-689374
2022-04-05-10-51-43-230113
2022-04-05-11-06-43-762132
2022-04-05-11-21-44-308429
2022-04-05-11-36-44-853151
2022-04-05-11-51-45-300032
2022-04-05-12-06-45-848337
2022-04-05-12-21-46-409086
2022-04-05-12-36-46-894138
2022-04-05-12-51-47-441600
2022-04-05-13-06-47-997389
2022-04-05-13-21-48-562137
2022-04-05-13-36-49-115089
2022-04-05-13-51-49-652891
2022-04-05-14-06-50-213527
2022-04-05-14-21-50-747599
2022-04-05-14-36-51-309300
2022-04-05-14-51-51-842010
2022-04-05-15-06-52-375205
2022-04-05-15-21-52-895666
2022-04-05-15-36-53-424932
2022-04-05-15-51-53-982598
2022-04-05-16-06-54-519100
2022-04-05-16-21-55-069708
2022-04-05-16-36-55-610185
2022-04-05-16-51-56-172883
2022-04-05-17-06-56-727321
2022-04-05-17-21-56-622389
2022-04-05-17-36-57-920381
2022-04-05-17-51-58-460368
2022-04-05-18-06-58-978691
2022-04-05-18-21-58-998989
2022-04-05-18-36-59-537869
2022-04-05-18-52-00-075070
2022-04-05-19-07-00-541244
2022-04-05-19-22-01-007699
2022-04-05-19-37-01-475663
2022-04-05-19-52-01-983032
2022-04-05-20-07-02-517212
2022-04-05-20-22-03-084186
2022-04-05-20-37-03-619681
2022-04-05-20-52-04-188695
2022-04-05-21-07-04-723716
2022-04-05-21-22-05-290530
2022-04-05-21-37-05-757933
2022-04-05-21-52-06-291793
2022-04-05-22-07-06-858828
2022-04-05-22-22-07-325456
2022-04-05-22-37-07-791651
2022-04-05-22-52-08-357367
2022-04-05-23-07-08-891644
2022-04-05-23-22-09-425454
2022-04-05-23-37-09-959264
2022-04-05-23-52-10-528475
2022-04-06-00-07-11-161829
2022-04-06-00-22-11-786899
2022-04-06-00-37-12-407834
2022-04-06-00-52-13-036447
2022-04-06-01-07-13-660237
2022-04-06-01-22-14-282265
2022-04-06-01-37-14-906277
2022-04-06-01-52-15-536029
2022-04-06-02-07-16-100270
2022-04-06-02-22-16-604462
2022-04-06-02-37-17-229213
2022-04-06-02-52-17-855468
2022-04-06-03-07-18-356628
2022-04-06-03-22-18-859602
2022-04-06-03-37-19-363099
2022-04-06-03-52-19-986530
2022-04-06-04-07-20-611672
2022-04-06-04-22-21-235542
2022-04-06-04-37-21-800346
2022-04-06-04-52-22-424595
2022-04-06-05-07-23-050771
2022-04-06-05-22-23-672209
2022-04-06-05-37-24-236454
2022-04-06-05-52-24-862059
2022-04-06-06-07-25-365176
2022-04-06-06-22-25-984868
2022-04-06-06-37-26-489883
2022-04-06-06-52-27-113403
2022-04-06-07-07-27-738357
2022-04-06-07-22-28-242055
2022-04-06-07-37-28-861591
2022-04-06-07-52-29-366129
2022-04-06-08-07-29-799804
2022-04-06-08-22-30-264088
2022-04-06-08-37-30-728704
2022-04-06-08-52-31-292429
2022-04-06-09-07-31-753881
2022-04-06-09-22-32-294008
2022-04-06-09-37-32-861076
2022-04-06-09-52-33-393855
2022-04-06-10-07-33-861507
2022-04-06-10-22-34-327975
2022-04-06-10-37-34-826741
2022-04-06-10-52-35-359370
2022-04-06-11-07-35-925631
2022-04-06-11-22-36-491962
2022-04-06-11-37-36-957725
2022-04-06-11-52-37-522982
2022-04-06-12-07-38-055934
2022-04-06-12-22-38-588237
2022-04-06-12-37-39-053132
2022-04-06-12-52-39-519572
2022-04-06-13-07-40-085586
2022-04-06-13-22-40-615499
2022-04-06-13-37-41-149873
2022-04-06-13-52-41-615713
2022-04-06-14-07-42-146420
2022-04-06-14-22-42-680113
2022-04-06-14-37-43-244004
2022-04-06-14-52-43-777142
2022-04-06-15-07-44-309055
2022-04-06-15-22-44-774688
2022-04-06-15-37-45-338980
2022-04-06-15-52-45-872064
2022-04-06-16-07-46-340896
2022-04-06-16-22-46-901879
2022-04-06-16-37-47-465613
2022-04-06-16-52-47-923900
2022-04-06-17-07-48-461969
2022-04-06-17-22-49-027663
2022-04-06-17-37-49-560172
2022-04-06-17-52-50-091482
2022-04-06-18-07-50-659275
2022-04-06-18-22-51-222340
2022-04-06-18-37-51-755837
2022-04-06-18-52-52-321912
2022-04-06-19-07-52-889423
2022-04-06-19-22-53-386585
2022-04-06-19-37-53-950787
2022-04-06-19-52-54-450075
2022-04-06-20-07-54-982343
2022-04-06-20-22-55-515504
2022-04-06-20-37-56-064899
2022-04-06-20-52-56-496805
2022-04-06-21-07-56-962532
2022-04-06-21-22-57-528725
2022-04-06-21-37-58-094893
2022-04-06-21-52-58-659879
2022-04-06-22-07-59-193308
2022-04-06-22-22-59-821398
2022-04-06-22-38-00-322692
2022-04-06-22-53-00-831671
2022-04-06-23-08-01-454360
2022-04-06-23-23-01-959948
2022-04-06-23-38-02-520433
2022-04-06-23-53-03-148912
2022-04-07-00-08-03-771124
2022-04-07-00-23-04-276020
2022-04-07-00-38-04-779703
2022-04-07-00-53-05-401707
2022-04-07-01-08-06-028217
2022-04-07-01-23-06-650024
2022-04-07-01-38-07-276560
2022-04-07-01-53-07-778528
2022-04-07-02-08-08-283766
2022-04-07-02-23-08-846991
2022-04-07-02-38-09-469235
2022-04-07-02-53-10-097917
2022-04-07-03-08-10-600162
2022-04-07-03-23-11-223965
2022-04-07-03-38-11-718915
2022-04-07-03-53-12-290695
2022-04-07-04-08-12-916263
2022-04-07-04-23-13-419219
2022-04-07-04-38-13-920092
2022-04-07-04-53-14-545037
2022-04-07-05-08-15-048001
2022-04-07-05-23-15-669208
2022-04-07-05-38-16-295155
2022-04-07-05-53-16-855965
2022-04-07-06-08-17-483615
2022-04-07-06-23-17-984809
2022-04-07-06-38-18-611213
2022-04-07-06-53-19-116090
2022-04-07-07-08-19-739474
2022-04-07-07-23-20-244406
2022-04-07-07-38-20-863343
2022-04-07-07-53-21-368802
2022-04-07-08-08-21-908596
2022-04-07-08-23-22-373333
2022-04-07-08-38-22-938639
2022-04-07-08-53-23-505750
2022-04-07-09-08-23-973137
2022-04-07-09-23-24-538616
2022-04-07-09-38-25-104295
2022-04-07-09-53-25-568115
2022-04-07-10-08-26-100195
2022-04-07-10-23-26-565725
2022-04-07-10-38-27-132157
2022-04-07-10-53-27-664159
2022-04-07-11-08-28-094999
2022-04-07-11-23-28-662189
2022-04-07-11-38-29-132229
2022-04-07-11-53-29-693990
2022-04-07-12-08-30-260801
2022-04-07-12-23-30-725623
2022-04-07-12-38-31-257387
2022-04-07-12-53-31-823373
2022-04-07-13-08-32-388674
2022-04-07-13-23-32-953891
2022-04-07-13-38-33-514610
2022-04-07-13-53-34-071922
2022-04-07-14-08-34-637479
2022-04-07-14-23-35-203764
2022-04-07-14-38-35-768661
2022-04-07-14-53-36-335025
2022-04-07-15-08-36-901482
2022-04-07-15-23-37-433856
2022-04-07-15-38-37-933992
2022-04-07-15-53-38-501429
2022-04-07-16-08-39-032121
2022-04-07-16-23-39-566197
2022-04-07-16-38-40-132851
2022-04-07-16-53-40-598506
2022-04-07-17-08-41-063674
2022-04-07-17-23-41-629062
2022-04-07-17-38-42-093941
2022-04-07-17-53-42-627838
2022-04-07-18-08-43-193833
2022-04-07-18-23-43-725155
2022-04-07-18-38-44-190365
2022-04-07-18-53-44-722168
2022-04-07-19-08-45-155044
2022-04-07-19-23-45-618350
2022-04-07-19-38-46-150663
2022-04-07-19-53-46-616591
2022-04-07-20-08-47-149771
2022-04-07-20-23-47-715616
2022-04-07-20-38-48-181383
2022-04-07-20-53-48-747396
2022-04-07-21-08-49-215385
2022-04-07-21-23-49-733200
2022-04-07-21-38-50-271447
2022-04-07-21-53-50-802091
2022-04-07-22-08-51-268289
2022-04-07-22-23-51-832989
2022-04-07-22-38-52-297703
2022-04-07-22-53-52-827874
2022-04-07-23-08-53-395226
2022-04-07-23-23-53-826515
2022-04-07-23-38-54-360178
2022-04-07-23-53-54-824923
2022-04-08-00-08-55-396691
2022-04-08-00-23-56-025178
2022-04-08-00-38-56-587556
2022-04-08-00-53-57-211689
2022-04-08-01-08-57-773016
2022-04-08-01-23-58-390392
2022-04-08-01-38-59-018418
2022-04-08-01-53-59-638414
2022-04-08-02-09-00-266952
2022-04-08-02-24-00-889947
2022-04-08-02-39-01-511922
2022-04-08-02-54-02-131517
2022-04-08-03-09-02-758851
2022-04-08-03-24-03-318583
2022-04-08-03-39-03-826210
2022-04-08-03-54-04-449940
2022-04-08-04-09-04-953157
2022-04-08-04-24-05-575279
2022-04-08-04-39-06-197908
2022-04-08-04-54-06-821715
2022-04-08-05-09-07-444542
2022-04-08-05-24-08-073721
2022-04-08-05-39-08-689835
2022-04-08-05-54-09-197454
2022-04-08-06-09-09-819279
2022-04-08-06-24-10-324485
2022-04-08-06-39-10-948803
2022-04-08-06-54-11-452850
2022-04-08-07-09-12-076989
2022-04-08-07-24-12-695657
2022-04-08-07-39-13-207238
2022-04-08-07-54-13-700303
2022-04-08-08-09-14-236648
2022-04-08-08-24-14-701092
2022-04-08-08-39-15-263033
2022-04-08-08-54-15-797214
2022-04-08-09-09-16-362409
2022-04-08-09-24-16-926765
2022-04-08-09-39-17-461432
2022-04-08-09-54-17-925848
2022-04-08-10-09-18-393556
2022-04-08-10-24-18-858724
2022-04-08-10-39-19-423372
2022-04-08-10-54-19-988753
2022-04-08-11-09-20-520686
2022-04-08-11-24-20-989748
2022-04-08-11-39-21-449907
2022-04-08-11-54-21-889915
2022-04-08-12-09-22-422966
2022-04-08-12-24-22-988652
2022-04-08-12-39-23-555098
2022-04-08-12-54-24-086948
2022-04-08-13-09-24-621187
2022-04-08-13-24-25-154207
2022-04-08-13-39-25-587220
2022-04-08-13-54-26-053448
2022-04-08-14-09-26-586112
2022-04-08-14-24-27-151889
2022-04-08-14-39-27-717711
2022-04-08-14-54-28-251332
2022-04-08-15-09-28-817225
2022-04-08-15-24-29-380664
2022-04-08-15-39-29-899605
2022-04-08-15-54-30-439459
2022-04-08-16-09-31-005502
2022-04-08-16-24-31-503261
2022-04-08-16-39-32-037094
2022-04-08-16-54-32-603463
2022-04-08-17-09-33-169550
2022-04-08-17-24-33-703672
2022-04-08-17-39-34-269477
2022-04-08-17-54-34-735075
2022-04-08-18-09-35-263040
2022-04-08-18-24-35-786556
2022-04-08-18-39-36-353581
2022-04-08-18-54-36-919655
2022-04-08-19-09-37-385653
2022-04-08-19-24-37-850917
2022-04-08-19-39-38-316977
2022-04-08-19-54-38-851596
2022-04-08-20-09-39-415494
2022-04-08-20-24-39-982351
2022-04-08-20-39-40-480874
2022-04-08-20-54-40-945544
2022-04-08-21-09-41-412345
2022-04-08-21-24-41-977683
2022-04-08-21-39-42-510949
2022-04-08-21-54-43-071080
2022-04-08-22-09-43-561705
2022-04-08-22-24-44-101811
2022-04-08-22-39-44-567312
2022-04-08-22-54-45-131733
2022-04-08-23-09-45-664568
2022-04-08-23-24-46-230652
2022-04-08-23-39-46-796456
2022-04-08-23-54-47-262766
2022-04-09-00-09-47-873294
2022-04-09-00-24-48-494372
2022-04-09-00-39-49-058783
2022-04-09-00-54-49-683230
2022-04-09-01-09-50-309947
2022-04-09-01-24-50-936474
2022-04-09-01-39-51-540918
2022-04-09-01-54-52-172996
2022-04-09-02-09-52-796573
2022-04-09-02-24-53-421486
2022-04-09-02-39-54-044649
2022-04-09-02-54-54-670090
2022-04-09-03-09-55-294147
2022-04-09-03-24-55-917023
2022-04-09-03-39-56-539901
2022-04-09-03-54-57-046096
2022-04-09-04-09-57-547835
2022-04-09-04-24-58-045996
2022-04-09-04-39-58-552944
2022-04-09-04-54-59-051014
2022-04-09-05-09-59-604910
2022-04-09-05-25-00-236333
2022-04-09-05-40-00-856373
2022-04-09-05-55-01-485276
2022-04-09-06-10-02-048554
2022-04-09-06-25-02-550265
2022-04-09-06-40-03-113353
2022-04-09-06-55-03-738700
2022-04-09-07-10-04-361707
2022-04-09-07-25-04-986726
2022-04-09-07-40-05-488524
2022-04-09-07-55-05-991089
2022-04-09-08-10-06-463002
2022-04-09-08-25-06-995145
2022-04-09-08-40-07-510819
2022-04-09-08-55-08-047887
2022-04-09-09-10-08-613387
2022-04-09-09-25-09-179156
2022-04-09-09-40-09-745627
2022-04-09-09-55-10-278066
2022-04-09-10-10-10-843634
2022-04-09-10-25-11-308984
2022-04-09-10-40-11-874743
2022-04-09-10-55-12-407765
2022-04-09-11-10-12-974466
2022-04-09-11-25-13-540058
2022-04-09-11-40-14-072628
2022-04-09-11-55-14-605053
2022-04-09-12-10-15-137546
2022-04-09-12-25-15-687824
2022-04-09-12-40-16-160001
2022-04-09-12-55-16-693255
2022-04-09-13-10-17-226278
2022-04-09-13-25-17-789504
2022-04-09-13-40-18-288932
2022-04-09-13-55-18-787912
2022-04-09-14-10-19-321491
2022-04-09-14-25-19-853777
2022-04-09-14-40-20-386137
2022-04-09-14-55-20-850918
2022-04-09-15-10-21-383305
2022-04-09-15-25-21-945997
2022-04-09-15-40-22-479229
2022-04-09-15-55-23-037297
2022-04-09-16-10-23-493657
2022-04-09-16-25-23-923881
2022-04-09-16-40-24-386753
2022-04-09-16-55-24-919860
2022-04-09-17-10-25-484052
2022-04-09-17-25-25-947090
2022-04-09-17-40-26-479337
2022-04-09-17-55-26-942327
2022-04-09-18-10-27-475289
2022-04-09-18-25-27-908770
2022-04-09-18-40-28-372859
2022-04-09-18-55-28-837948
2022-04-09-19-10-29-302857
2022-04-09-19-25-29-866764
2022-04-09-19-40-30-367773
2022-04-09-19-55-30-834967
2022-04-09-20-10-31-300860
2022-04-09-20-25-31-832686
2022-04-09-20-40-32-364876
2022-04-09-20-55-32-830476
2022-04-09-21-10-33-296073
2022-04-09-21-25-33-824931
2022-04-09-21-40-34-322965
2022-04-09-21-55-34-789873
2022-04-09-22-10-35-255709
2022-04-09-22-25-35-786868
2022-04-09-22-40-36-252744
2022-04-09-22-55-36-815523
2022-04-09-23-10-37-350323
2022-04-09-23-25-37-913300
2022-04-09-23-40-38-380016
2022-04-09-23-55-38-911598
2022-04-10-00-10-39-519133
2022-04-10-00-25-40-139605
2022-04-10-00-40-40-762216
2022-04-10-00-55-41-265789
2022-04-10-01-10-41-764462
2022-04-10-01-25-42-265710
2022-04-10-01-40-42-827156
2022-04-10-01-55-43-331724
2022-04-10-02-10-43-953189
2022-04-10-02-25-44-573155
2022-04-10-02-40-45-197744
2022-04-10-02-55-45-818126
2022-04-10-03-10-46-314849
2022-04-10-03-25-46-939566
2022-04-10-03-40-47-556053
2022-04-10-03-55-48-063216
2022-04-10-04-10-48-685359
2022-04-10-04-25-49-180101
2022-04-10-04-40-49-801612
2022-04-10-04-55-50-369393
2022-04-10-05-10-50-930414
2022-04-10-05-25-51-546787
2022-04-10-05-40-52-169675
2022-04-10-05-55-52-785910
2022-04-10-06-10-53-414047
2022-04-10-06-25-54-040171
2022-04-10-06-40-54-592652
2022-04-10-06-55-55-099081
2022-04-10-07-10-55-721046
2022-04-10-07-25-56-341527
2022-04-10-07-40-56-961104
2022-04-10-07-55-57-582621
2022-04-10-08-10-58-029646
2022-04-10-08-25-58-593206
2022-04-10-08-40-59-058318
2022-04-10-08-55-59-623242
2022-04-10-09-11-00-188811
2022-04-10-09-26-00-683826
2022-04-10-09-41-01-172059
2022-04-10-09-56-01-678092
2022-04-10-10-11-02-143172
2022-04-10-10-26-02-677436
2022-04-10-10-41-03-209825
2022-04-10-10-56-03-674918
2022-04-10-11-11-04-204017
2022-04-10-11-26-04-735583
2022-04-10-11-41-05-167123
2022-04-10-11-56-05-698684
2022-04-10-12-11-06-229761
2022-04-10-12-26-06-695480
2022-04-10-12-41-07-224637
2022-04-10-12-56-07-757110
2022-04-10-13-11-08-222436
2022-04-10-13-26-08-750979
2022-04-10-13-41-09-217796
2022-04-10-13-56-09-783317
2022-04-10-14-11-10-247390
2022-04-10-14-26-10-710996
2022-04-10-14-41-11-242751
2022-04-10-14-56-11-807347
2022-04-10-15-11-12-306479
2022-04-10-15-26-12-771143
2022-04-10-15-41-13-334870
2022-04-10-15-56-13-834387
2022-04-10-16-11-14-298119
2022-04-10-16-26-14-831693
2022-04-10-16-41-15-294704
2022-04-10-16-56-15-760856
2022-04-10-17-11-16-325940
2022-04-10-17-26-16-892948
2022-04-10-17-41-17-455835
2022-04-10-17-56-17-988684
2022-04-10-18-11-18-456300
2022-04-10-18-26-19-021042
2022-04-10-18-41-19-553302
2022-04-10-18-56-20-083832
2022-04-10-19-11-20-615982
2022-04-10-19-26-21-114854
2022-04-10-19-41-21-579352
2022-04-10-19-56-22-044503
2022-04-10-20-11-22-507502
2022-04-10-20-26-23-039621
2022-04-10-20-41-23-504085
2022-04-10-20-56-23-969264
2022-04-10-21-11-24-433106
2022-04-10-21-26-24-900552
2022-04-10-21-41-25-422403
2022-04-10-21-56-25-989651
2022-04-10-22-11-26-486816
2022-04-10-22-26-27-049189
2022-04-10-22-41-27-514468
2022-04-10-22-56-27-978593
2022-04-10-23-11-28-444812
2022-04-10-23-26-28-943450
2022-04-10-23-41-29-407100
2022-04-10-23-56-29-940720
2022-04-11-00-11-30-574518
2022-04-11-00-26-31-076628
2022-04-11-00-41-31-575660
2022-04-11-00-56-32-075476
2022-04-11-01-11-32-579517
2022-04-11-01-26-33-139325
2022-04-11-01-41-33-761390
2022-04-11-01-56-34-381543
2022-04-11-02-11-35-005684
2022-04-11-02-26-35-501890
2022-04-11-02-41-36-002209
2022-04-11-02-56-36-502553
2022-04-11-03-11-37-007196
2022-04-11-03-26-37-628355
2022-04-11-03-41-38-127011
2022-04-11-03-56-38-745712
2022-04-11-04-11-39-366951
2022-04-11-04-26-39-871265
2022-04-11-04-41-40-374075
2022-04-11-04-56-40-935257
2022-04-11-05-11-41-435251
2022-04-11-05-26-41-937433
2022-04-11-05-41-42-558308
2022-04-11-05-56-43-062242
2022-04-11-06-11-43-619856
2022-04-11-06-26-44-243517
2022-04-11-06-41-44-864657
2022-04-11-06-56-45-363230
2022-04-11-07-11-45-868872
2022-04-11-07-26-46-487668
2022-04-11-07-41-47-047879
2022-04-11-07-56-47-670015
2022-04-11-08-11-48-208008
2022-04-11-08-26-48-738397
2022-04-11-08-41-49-203116
2022-04-11-08-56-49-666439
2022-04-11-09-11-50-232554
2022-04-11-09-26-50-762169
2022-04-11-09-41-51-326657
2022-04-11-09-56-51-854297
2022-04-11-10-11-52-417496
2022-04-11-10-26-52-981999
2022-04-11-10-41-53-445426
2022-04-11-10-56-53-910121
2022-04-11-11-11-54-473579
2022-04-11-11-26-54-936246
2022-04-11-11-41-55-397054
2022-04-11-11-56-55-829452
2022-04-11-12-11-56-359374
2022-04-11-12-26-56-824403
2022-04-11-12-41-57-388556
2022-04-11-12-56-57-886982
2022-04-11-13-11-58-416779
2022-04-11-13-26-58-881998
2022-04-11-13-41-59-346807
2022-04-11-13-56-59-810623
2022-04-11-14-12-00-275364
2022-04-11-14-27-00-839620
2022-04-11-14-42-01-302555
2022-04-11-14-57-01-833490
2022-04-11-15-12-02-268320
2022-04-11-15-27-02-832067
2022-04-11-15-42-03-363828
2022-04-11-15-57-03-895478
2022-04-11-16-12-04-361467
2022-04-11-16-27-04-926062
2022-04-11-16-42-05-388882
2022-04-11-16-57-05-921853
2022-04-11-17-12-06-486516
2022-04-11-17-27-07-050758
2022-04-11-17-42-07-516103
2022-04-11-17-57-07-947090
2022-04-11-18-12-08-380841
2022-04-11-18-27-08-911889
2022-04-11-18-42-09-377537
2022-04-11-18-57-09-843776
2022-04-11-19-12-10-309287
2022-04-11-19-27-10-825525
2022-04-11-19-42-11-365209
2022-04-11-19-57-11-930977
2022-04-11-20-12-12-498375
2022-04-11-20-27-13-063190
2022-04-11-20-42-13-595462
2022-04-11-20-57-14-127785
2022-04-11-21-12-14-659751
2022-04-11-21-27-15-158509
2022-04-11-21-42-15-725531
2022-04-11-21-57-16-291537
2022-04-11-22-12-16-826692
2022-04-11-22-27-17-291709
2022-04-11-22-42-17-824410
2022-04-11-22-57-18-359189
2022-04-11-23-12-18-890559
2022-04-11-23-27-19-358065
2022-04-11-23-42-19-888517
2022-04-11-23-57-20-357717
2022-04-12-00-12-20-890521
2022-04-12-00-27-21-456857
2022-04-12-00-42-22-080529
2022-04-12-00-57-22-584361
2022-04-12-01-12-23-148221
2022-04-12-01-27-23-772425
2022-04-12-01-42-24-269208
2022-04-12-01-57-24-896408
2022-04-12-02-12-25-521309
2022-04-12-02-27-26-141060
2022-04-12-02-42-26-766476
2022-04-12-02-57-27-377415
2022-04-12-03-12-28-005405
2022-04-12-03-27-28-622437
2022-04-12-03-42-29-246595
2022-04-12-03-57-29-872349
2022-04-12-04-12-30-497424
2022-04-12-04-27-31-114726
2022-04-12-04-42-31-620932
2022-04-12-04-57-32-244669
2022-04-12-05-12-32-807314
2022-04-12-05-27-33-304196
2022-04-12-05-42-33-930782
2022-04-12-05-57-34-549060
2022-04-12-06-12-35-041748
2022-04-12-06-27-35-667093
2022-04-12-06-42-36-290545
2022-04-12-06-57-36-915889
2022-04-12-07-12-37-539236
2022-04-12-07-27-38-041318
2022-04-12-07-42-38-601167
2022-04-12-07-57-39-105188
2022-04-12-08-12-39-642004
2022-04-12-08-27-40-168456
2022-04-12-08-42-40-592203